 
{"id":1, "text":"Ocak 2016","imagePath":"data/covers/1.png","localPath":null, "downloaded": false,
    "pages":[
            {"id":1, "page":"1","imagePath":"data/magazines/1/1.png","localPath":null},
            {"id":2, "page":"2","imagePath":"data/magazines/1/2.png","localPath":null},
            {"id":3, "page":"3","imagePath":"data/magazines/1/3.png","localPath":null},
            {"id":4, "page":"4","imagePath":"data/magazines/1/4.png","localPath":null}
        ]
}
